<svg width="60" height="24" viewBox="0 0 60 24" fill="none" xmlns="http://www.w3.org/2000/svg">
<mask id="mask0_10677_3775" style="mask-type:luminance" maskUnits="userSpaceOnUse" x="2" y="2" width="58" height="21">
<path d="M60 2H2V22.4906H60V2Z" fill="white"/>
</mask>
<g mask="url(#mask0_10677_3775)">
<path d="M2.47045 19.6045H2.90462L2.50117 21.2897C2.44129 21.5397 2.45258 21.7279 2.53534 21.8535C2.61778 21.9792 2.77123 22.042 2.99553 22.042C3.21842 22.042 3.40118 21.9792 3.54397 21.8535C3.68692 21.7279 3.78833 21.5397 3.84821 21.2897L4.25151 19.6045H4.69132L4.278 21.3314C4.18818 21.7066 4.02815 21.9875 3.79899 22.1737C3.56968 22.3602 3.26905 22.4533 2.8971 22.4533C2.52484 22.4533 2.2695 22.3604 2.13047 22.1746C1.99129 21.9891 1.96699 21.7079 2.05712 21.3314L2.47045 19.6045Z" fill="#696A6A"/>
<path d="M4.63281 22.3767L5.32341 19.4919L6.63566 21.1883C6.67077 21.2361 6.70619 21.2873 6.74115 21.3417C6.7761 21.3961 6.81184 21.4572 6.84851 21.5256L7.30918 19.6017H7.71561L7.02548 22.4844L5.68565 20.7577C5.64975 20.7112 5.61637 20.6619 5.58517 20.6101C5.55367 20.5582 5.5253 20.5038 5.49928 20.447L5.03736 22.3767H4.63281Z" fill="#696A6A"/>
<path d="M7.67969 22.379L8.34397 19.604H8.78347L8.11936 22.379H7.67969Z" fill="#696A6A"/>
<path d="M8.75 22.379L9.41428 19.604H10.9237L10.832 19.9868H9.76224L9.59657 20.6787H10.6663L10.5716 21.0748H9.50174L9.18967 22.379H8.75Z" fill="#696A6A"/>
<path d="M10.7441 22.379L11.4084 19.604H11.8479L11.1838 22.379H10.7441Z" fill="#696A6A"/>
<path d="M11.8164 22.379L12.4807 19.604H13.9901L13.8984 19.9868H12.8286L12.662 20.6824H13.7318L13.6371 21.0787H12.5673L12.3526 21.9752H13.4224L13.3258 22.379H11.8164Z" fill="#696A6A"/>
<path d="M14.3673 21.9714H14.7369C14.94 21.9714 15.0958 21.9575 15.2041 21.9297C15.3125 21.902 15.4118 21.8551 15.5029 21.7894C15.6266 21.6999 15.7299 21.5883 15.8129 21.455C15.8958 21.3217 15.9587 21.1664 16.001 20.9894C16.0432 20.8125 16.0548 20.6576 16.0357 20.5245C16.0164 20.391 15.9665 20.2795 15.8858 20.1897C15.8252 20.1242 15.7451 20.0772 15.6451 20.0493C15.5449 20.0217 15.3819 20.0078 15.1552 20.0078H14.9963H14.8374L14.3673 21.9714ZM13.8301 22.3791L14.4944 19.604H15.0874C15.473 19.604 15.7394 19.6237 15.8871 19.6636C16.0344 19.7035 16.1562 19.7703 16.252 19.8637C16.3791 19.9863 16.46 20.1437 16.4948 20.3355C16.5294 20.5277 16.5172 20.747 16.4582 20.9934C16.3993 21.2397 16.3067 21.4581 16.1803 21.6482C16.0543 21.8385 15.898 21.9954 15.7121 22.1192C15.5715 22.2128 15.4208 22.2794 15.2606 22.3194C15.0999 22.359 14.8604 22.3791 14.5413 22.3791H14.4229H13.8301Z" fill="#696A6A"/>
<path d="M18.5996 20.7641H18.7125C18.9562 20.7641 19.1253 20.7367 19.2197 20.6824C19.3142 20.6282 19.3777 20.5321 19.4106 20.3943C19.446 20.2465 19.4277 20.1421 19.3553 20.0816C19.2829 20.021 19.1305 19.9904 18.8977 19.9904H18.7849L18.5996 20.7641ZM18.4835 21.1334L18.1853 22.379H17.7734L18.4379 19.604H19.1029C19.2999 19.604 19.4424 19.615 19.5302 19.6371C19.6177 19.6591 19.6899 19.6956 19.747 19.7462C19.8164 19.8106 19.862 19.8975 19.884 20.0067C19.9057 20.1161 19.901 20.2365 19.8697 20.3677C19.838 20.4992 19.7851 20.6205 19.7104 20.7318C19.6358 20.8429 19.5484 20.9302 19.4484 20.9933C19.3672 21.0439 19.2777 21.0799 19.1796 21.1012C19.0813 21.1229 18.9338 21.1334 18.7368 21.1334H18.6501H18.4835Z" fill="#696A6A"/>
<path d="M20.4123 21.2891H21.166L21.0402 20.6558C21.0342 20.6156 21.0286 20.5692 21.0237 20.5167C21.0192 20.4641 21.016 20.4057 21.014 20.3413C20.9848 20.4019 20.9555 20.4585 20.9262 20.511C20.8971 20.5634 20.8687 20.6116 20.8408 20.6558L20.4123 21.2891ZM21.3671 22.3789L21.2312 21.6643H20.1596L19.6745 22.3789H19.2129L21.2131 19.4941L21.8308 22.3789H21.3671Z" fill="#696A6A"/>
<path d="M22.4616 22.379L22.7653 21.1089L22.2148 19.604H22.6768L23.0185 20.5461C23.0263 20.5702 23.0357 20.6017 23.0465 20.6409C23.0575 20.6801 23.0681 20.7222 23.0782 20.7679C23.1058 20.7237 23.1341 20.6816 23.1625 20.6426C23.1909 20.6034 23.2196 20.5675 23.2486 20.5346L24.0531 19.604H24.4929L23.2014 21.1089L22.8975 22.379H22.4616Z" fill="#696A6A"/>
<path d="M26.6559 21.006C26.656 20.9845 26.6623 20.9253 26.6745 20.828C26.6839 20.7471 26.6913 20.68 26.6966 20.6269C26.6704 20.6902 26.6396 20.7535 26.6041 20.8165C26.5686 20.8797 26.5278 20.9441 26.4812 21.0099L25.4196 22.4885L25.0732 20.9797C25.0585 20.9176 25.0472 20.8576 25.0397 20.7996C25.0322 20.7414 25.027 20.6839 25.0245 20.6269C25.0094 20.6852 24.9903 20.746 24.967 20.8099C24.9436 20.8737 24.9157 20.9405 24.8829 21.0099L24.2657 22.3766H23.8613L25.1928 19.4839L25.5718 21.2355C25.5773 21.2632 25.5853 21.3095 25.595 21.3739C25.6047 21.4383 25.6162 21.5179 25.6295 21.6126C25.6743 21.533 25.7389 21.432 25.8239 21.3095C25.8464 21.2766 25.8637 21.2513 25.8753 21.2336L27.0739 19.4839L27.0355 22.3766H26.627L26.6559 21.006Z" fill="#696A6A"/>
<path d="M27.3867 22.379L28.0511 19.604H29.5606L29.4689 19.9868H28.3989L28.2325 20.6824H29.3023L29.2076 21.0787H28.1377L27.9231 21.9752H28.9928L28.896 22.379H27.3867Z" fill="#696A6A"/>
<path d="M29.4004 22.3767L30.091 19.4919L31.4032 21.1883C31.4383 21.2361 31.4738 21.2873 31.5087 21.3417C31.5437 21.3961 31.5794 21.4572 31.6161 21.5256L32.0767 19.6017H32.4833L31.793 22.4844L30.4532 20.7577C30.4173 20.7112 30.3839 20.6619 30.3527 20.6101C30.3212 20.5582 30.2929 20.5038 30.2668 20.447L29.8049 22.3767H29.4004Z" fill="#696A6A"/>
<path d="M33.887 19.9868L33.3144 22.379H32.8748L33.4472 19.9868H32.7285L32.8202 19.604H34.6936L34.6021 19.9868H33.887Z" fill="#696A6A"/>
<path d="M34.3439 21.8239L34.7348 21.6573C34.7387 21.781 34.7769 21.8755 34.85 21.9405C34.923 22.0057 35.0285 22.0382 35.1668 22.0382C35.2972 22.0382 35.41 22.0009 35.5047 21.9263C35.5995 21.8518 35.6621 21.752 35.692 21.6269C35.731 21.4637 35.6337 21.3184 35.4009 21.191C35.3683 21.172 35.3432 21.1581 35.326 21.1491C35.0635 21.0001 34.897 20.8651 34.8268 20.7444C34.7567 20.6237 34.7423 20.4762 34.784 20.3019C34.8381 20.0758 34.9569 19.8925 35.1401 19.7522C35.3233 19.612 35.5362 19.5417 35.779 19.5417C35.9785 19.5417 36.136 19.5812 36.2513 19.6602C36.3666 19.7394 36.4324 19.8527 36.4487 20.0005L36.0618 20.1825C36.0282 20.0954 35.984 20.0316 35.9291 19.991C35.8741 19.9505 35.8045 19.9303 35.721 19.9303C35.6028 19.9303 35.5012 19.9621 35.4164 20.025C35.3321 20.0883 35.2768 20.1729 35.2512 20.2792C35.2114 20.446 35.3269 20.6013 35.598 20.7454C35.6188 20.7566 35.6351 20.7657 35.6469 20.772C35.884 20.8982 36.0382 21.0219 36.1089 21.1425C36.1798 21.2634 36.1937 21.414 36.1503 21.5946C36.0875 21.8576 35.9569 22.0664 35.7585 22.2211C35.56 22.3758 35.3233 22.4532 35.0489 22.4532C34.8183 22.4532 34.6426 22.399 34.5216 22.2902C34.4003 22.1816 34.341 22.0263 34.3439 21.8239Z" fill="#696A6A"/>
<path d="M37.5918 22.379L38.2561 19.604H38.6957L38.0314 22.379H37.5918Z" fill="#696A6A"/>
<path d="M38.6641 22.3767L39.3547 19.4919L40.6669 21.1883C40.702 21.2361 40.7375 21.2873 40.7724 21.3417C40.8074 21.3961 40.8431 21.4572 40.8798 21.5256L41.3404 19.6017H41.7469L41.0567 22.4844L39.7169 20.7577C39.681 20.7112 39.6475 20.6619 39.6163 20.6101C39.5849 20.5582 39.5564 20.5038 39.5304 20.447L39.0686 22.3767H38.6641Z" fill="#696A6A"/>
<path d="M43.1487 19.9868L42.576 22.379H42.1365L42.7089 19.9868H41.9902L42.0819 19.604H43.9553L43.8637 19.9868H43.1487Z" fill="#696A6A"/>
<path d="M43.627 22.379L44.2913 19.604H45.8007L45.7092 19.9868H44.6394L44.4728 20.6824H45.5426L45.4477 21.0787H44.378L44.1634 21.9752H45.2332L45.1364 22.379H43.627Z" fill="#696A6A"/>
<path d="M46.4634 20.7867H46.5431C46.7757 20.7867 46.937 20.7591 47.0266 20.7034C47.1163 20.6478 47.1783 20.5494 47.2119 20.4077C47.2486 20.2548 47.2335 20.147 47.1663 20.0846C47.0997 20.0218 46.9553 19.9906 46.7337 19.9906H46.654L46.4634 20.7867ZM46.3518 21.1373L46.0545 22.379H45.6426L46.307 19.604H46.9204C47.1001 19.604 47.2368 19.616 47.3301 19.6401C47.4235 19.6641 47.4987 19.7037 47.5556 19.7595C47.6233 19.8263 47.6672 19.9131 47.6876 20.0193C47.7075 20.1252 47.7023 20.2415 47.6722 20.3677C47.6191 20.5901 47.5251 20.7643 47.3903 20.8901C47.2555 21.0157 47.0827 21.0914 46.8722 21.1164L47.5014 22.379H47.0042L46.4017 21.1373H46.3518Z" fill="#696A6A"/>
<path d="M47.7598 22.379L48.4241 19.604H49.9335L49.842 19.9868H48.7721L48.6064 20.6787H49.6763L49.5815 21.0748H48.5117L48.1995 22.379H47.7598Z" fill="#696A6A"/>
<path d="M50.4435 21.2891H51.1974L51.0716 20.6558C51.0654 20.6156 51.06 20.5692 51.0551 20.5167C51.0506 20.4641 51.0474 20.4057 51.0454 20.3413C51.0161 20.4019 50.9868 20.4585 50.9576 20.511C50.9285 20.5634 50.8999 20.6116 50.872 20.6558L50.4435 21.2891ZM51.3985 22.3789L51.2626 21.6643H50.191L49.7059 22.3789H49.2441L51.2443 19.4941L51.8622 22.3789H51.3985Z" fill="#696A6A"/>
<path d="M54.7243 20.2793C54.6261 20.1707 54.5142 20.0892 54.3884 20.0348C54.2631 19.9807 54.1239 19.9533 53.971 19.9533C53.6756 19.9533 53.4116 20.0506 53.1798 20.2451C52.9477 20.4398 52.7947 20.6919 52.7206 21.0016C52.6489 21.3011 52.6801 21.548 52.814 21.7425C52.9478 21.9372 53.1522 22.0347 53.4267 22.0347C53.587 22.0347 53.7463 22.0055 53.9049 21.9474C54.0635 21.8892 54.2236 21.8014 54.3845 21.6837L54.2624 22.1938C54.1234 22.2809 53.979 22.3461 53.8297 22.3889C53.6801 22.4319 53.5242 22.4533 53.3616 22.4533C53.1547 22.4533 52.9717 22.4187 52.8129 22.3491C52.6539 22.2797 52.524 22.1775 52.4235 22.042C52.3235 21.9094 52.2594 21.7532 52.232 21.5729C52.2041 21.393 52.2146 21.2011 52.2632 20.9975C52.3119 20.7942 52.3933 20.6031 52.5069 20.4243C52.6204 20.2455 52.7607 20.0884 52.9271 19.9533C53.0942 19.8168 53.2729 19.7136 53.4632 19.6433C53.6536 19.5733 53.85 19.5381 54.0521 19.5381C54.211 19.5381 54.3568 19.5619 54.4895 19.6094C54.6223 19.6566 54.7449 19.7282 54.8576 19.8246L54.7243 20.2793Z" fill="#696A6A"/>
<path d="M54.7676 22.379L55.4319 19.604H56.9413L56.8496 19.9868H55.78L55.6134 20.6824H56.6831L56.5883 21.0787H55.5185L55.3039 21.9752H56.3737L56.277 22.379H54.7676Z" fill="#696A6A"/>
<path d="M46.749 17.1837H43.7266L47.9301 2.00244H50.9527L46.749 17.1837Z" fill="#66686C"/>
<path d="M45.1791 2.48444C44.9696 2.19557 44.6464 2.0498 44.2073 2.0498H27.587L26.7638 5.02319H29.788V5.02147H41.8836L41.0037 8.19894H28.9077L28.9088 8.19237H25.8859L23.377 17.25H26.4014L28.0852 11.1706H41.6819C42.1065 11.1706 42.5062 11.0258 42.8821 10.7361C43.2572 10.4461 43.504 10.0886 43.6224 9.66166L45.3059 3.58101C45.4288 3.13978 45.3863 2.77363 45.1791 2.48444Z" fill="#66686C"/>
<path d="M21.6164 16.2371C21.4494 16.8382 20.9021 17.254 20.2781 17.254H4.68366C4.25874 17.254 3.9429 17.1092 3.73522 16.8198C3.52769 16.5302 3.48318 16.1719 3.60183 15.7451L7.4069 2.04785H10.4322L7.03354 14.2816H19.135L22.5336 2.04785H25.5583L21.6164 16.2371Z" fill="#66686C"/>
<path d="M56.1727 2.03149L59.9994 9.64178L51.9551 17.25L56.1727 2.03149Z" fill="#27803B"/>
<path d="M53.4893 2.03149L57.3132 9.64178L49.2656 17.25L53.4893 2.03149Z" fill="#E9661C"/>
</g>
</svg>
