<svg width="170" height="50" viewBox="0 0 170 50" fill="none" xmlns="http://www.w3.org/2000/svg">
<rect x="0.25" y="0.25" width="169.5" height="49.5" rx="1.75" stroke="black" stroke-width="0.5"/>
<rect x="0.25" y="0.25" width="169.5" height="49.5" rx="1.75" stroke="black" stroke-width="0.5"/>
<path d="M59.236 37.152C59.26 37.488 59.32 37.84 59.416 38.208C59.512 38.576 59.604 38.84 59.692 39H58.348C58.18 38.584 58.06 37.98 57.988 37.188C57.932 36.556 57.768 36.14 57.496 35.94C57.224 35.74 56.716 35.64 55.972 35.64H54.124V39H52.924V30.6H56.836C57.62 30.6 58.252 30.816 58.732 31.248C59.22 31.68 59.464 32.236 59.464 32.916C59.464 33.54 59.244 34.048 58.804 34.44C58.372 34.832 57.788 35.06 57.052 35.124V35.16C57.764 35.216 58.292 35.404 58.636 35.724C58.988 36.036 59.188 36.512 59.236 37.152ZM54.124 31.596V34.644H56.416C57.008 34.644 57.456 34.5 57.76 34.212C58.072 33.916 58.228 33.536 58.228 33.072C58.228 32.608 58.072 32.248 57.76 31.992C57.456 31.728 57.012 31.596 56.428 31.596H54.124ZM66.0788 35.784V36.036H61.1348C61.1908 36.724 61.3908 37.264 61.7348 37.656C62.0868 38.04 62.5428 38.232 63.1028 38.232C63.5268 38.232 63.8908 38.132 64.1948 37.932C64.5068 37.724 64.6908 37.456 64.7468 37.128H65.9468C65.8508 37.752 65.5348 38.244 64.9988 38.604C64.4708 38.964 63.8388 39.144 63.1028 39.144C62.1428 39.144 61.3748 38.836 60.7988 38.22C60.2308 37.596 59.9468 36.756 59.9468 35.7C59.9468 34.7 60.2308 33.876 60.7988 33.228C61.3668 32.58 62.1348 32.256 63.1028 32.256C64.0788 32.256 64.8188 32.58 65.3228 33.228C65.8268 33.868 66.0788 34.72 66.0788 35.784ZM63.1028 33.168C62.5748 33.168 62.1348 33.348 61.7828 33.708C61.4388 34.06 61.2268 34.556 61.1468 35.196H64.8668C64.8348 34.548 64.6628 34.048 64.3508 33.696C64.0388 33.344 63.6228 33.168 63.1028 33.168ZM72.4655 34.824H71.2655C71.2495 34.32 71.0935 33.92 70.7975 33.624C70.5095 33.32 70.1215 33.168 69.6335 33.168C69.0335 33.168 68.5615 33.4 68.2175 33.864C67.8735 34.32 67.7015 34.932 67.7015 35.7C67.7015 36.468 67.8695 37.084 68.2055 37.548C68.5415 38.004 69.0095 38.232 69.6095 38.232C70.1055 38.232 70.5055 38.072 70.8095 37.752C71.1215 37.424 71.2815 36.976 71.2895 36.408H72.4895C72.4815 37.224 72.2055 37.884 71.6615 38.388C71.1255 38.892 70.4375 39.144 69.5975 39.144C68.6615 39.144 67.9095 38.828 67.3415 38.196C66.7815 37.556 66.5015 36.724 66.5015 35.7C66.5015 34.676 66.7855 33.848 67.3535 33.216C67.9215 32.576 68.6775 32.256 69.6215 32.256C70.4695 32.256 71.1495 32.492 71.6615 32.964C72.1735 33.436 72.4415 34.056 72.4655 34.824ZM78.3892 38.184C77.8052 38.824 77.0292 39.144 76.0612 39.144C75.0932 39.144 74.3132 38.824 73.7212 38.184C73.1372 37.544 72.8452 36.708 72.8452 35.676C72.8452 34.66 73.1372 33.836 73.7212 33.204C74.3132 32.572 75.0932 32.256 76.0612 32.256C77.0292 32.256 77.8052 32.572 78.3892 33.204C78.9812 33.836 79.2772 34.66 79.2772 35.676C79.2772 36.708 78.9812 37.544 78.3892 38.184ZM74.5972 37.524C74.9652 37.996 75.4532 38.232 76.0612 38.232C76.6692 38.232 77.1572 37.996 77.5252 37.524C77.8932 37.052 78.0772 36.436 78.0772 35.676C78.0772 34.924 77.8932 34.32 77.5252 33.864C77.1572 33.4 76.6692 33.168 76.0612 33.168C75.4532 33.168 74.9652 33.4 74.5972 33.864C74.2292 34.32 74.0452 34.924 74.0452 35.676C74.0452 36.436 74.2292 37.052 74.5972 37.524ZM87.328 32.256C87.944 32.256 88.456 32.46 88.864 32.868C89.272 33.268 89.476 33.804 89.476 34.476V39H88.324V34.596C88.324 34.18 88.2 33.844 87.952 33.588C87.704 33.324 87.38 33.192 86.98 33.192C86.468 33.192 86.056 33.408 85.744 33.84C85.44 34.272 85.288 34.868 85.288 35.628V39H84.136V34.596C84.136 34.188 84.012 33.852 83.764 33.588C83.516 33.324 83.196 33.192 82.804 33.192C82.292 33.192 81.88 33.416 81.568 33.864C81.256 34.312 81.1 34.9 81.1 35.628V39H79.948V32.4H81.064V33.912H81.1C81.188 33.392 81.428 32.988 81.82 32.7C82.212 32.404 82.656 32.256 83.152 32.256C83.656 32.256 84.1 32.404 84.484 32.7C84.868 32.996 85.116 33.396 85.228 33.9H85.252C85.388 33.348 85.644 32.936 86.02 32.664C86.404 32.392 86.84 32.256 87.328 32.256ZM97.8905 32.256C98.5065 32.256 99.0185 32.46 99.4265 32.868C99.8345 33.268 100.038 33.804 100.038 34.476V39H98.8865V34.596C98.8865 34.18 98.7625 33.844 98.5145 33.588C98.2665 33.324 97.9425 33.192 97.5425 33.192C97.0305 33.192 96.6185 33.408 96.3065 33.84C96.0025 34.272 95.8505 34.868 95.8505 35.628V39H94.6985V34.596C94.6985 34.188 94.5745 33.852 94.3265 33.588C94.0785 33.324 93.7585 33.192 93.3665 33.192C92.8545 33.192 92.4425 33.416 92.1305 33.864C91.8185 34.312 91.6625 34.9 91.6625 35.628V39H90.5105V32.4H91.6265V33.912H91.6625C91.7505 33.392 91.9905 32.988 92.3825 32.7C92.7745 32.404 93.2185 32.256 93.7145 32.256C94.2185 32.256 94.6625 32.404 95.0465 32.7C95.4305 32.996 95.6785 33.396 95.7905 33.9H95.8145C95.9505 33.348 96.2065 32.936 96.5825 32.664C96.9665 32.392 97.4025 32.256 97.8905 32.256ZM106.821 35.784V36.036H101.877C101.933 36.724 102.133 37.264 102.477 37.656C102.829 38.04 103.285 38.232 103.845 38.232C104.269 38.232 104.633 38.132 104.937 37.932C105.249 37.724 105.433 37.456 105.489 37.128H106.689C106.593 37.752 106.277 38.244 105.741 38.604C105.213 38.964 104.581 39.144 103.845 39.144C102.885 39.144 102.117 38.836 101.541 38.22C100.973 37.596 100.689 36.756 100.689 35.7C100.689 34.7 100.973 33.876 101.541 33.228C102.109 32.58 102.877 32.256 103.845 32.256C104.821 32.256 105.561 32.58 106.065 33.228C106.569 33.868 106.821 34.72 106.821 35.784ZM103.845 33.168C103.317 33.168 102.877 33.348 102.525 33.708C102.181 34.06 101.969 34.556 101.889 35.196H105.609C105.577 34.548 105.405 34.048 105.093 33.696C104.781 33.344 104.365 33.168 103.845 33.168ZM110.822 32.256C111.478 32.256 112.014 32.468 112.43 32.892C112.854 33.308 113.066 33.856 113.066 34.536V39H111.914V34.752C111.914 34.256 111.786 33.872 111.53 33.6C111.282 33.328 110.942 33.192 110.51 33.192C109.966 33.192 109.526 33.404 109.19 33.828C108.862 34.244 108.698 34.828 108.698 35.58V39H107.546V32.4H108.662V33.912H108.698C108.794 33.392 109.038 32.988 109.43 32.7C109.83 32.404 110.294 32.256 110.822 32.256ZM118.828 32.892V30.24H119.98V39H118.828V37.488H118.792C118.656 38.016 118.376 38.424 117.952 38.712C117.528 39 117.052 39.144 116.524 39.144C115.716 39.144 115.044 38.824 114.508 38.184C113.98 37.536 113.716 36.704 113.716 35.688C113.716 34.68 113.992 33.856 114.544 33.216C115.096 32.576 115.788 32.256 116.62 32.256C117.132 32.256 117.58 32.396 117.964 32.676C118.356 32.948 118.628 33.36 118.78 33.912H118.828V32.892ZM116.824 38.232C117.408 38.232 117.892 37.996 118.276 37.524C118.66 37.052 118.852 36.44 118.852 35.688C118.852 34.944 118.66 34.336 118.276 33.864C117.9 33.392 117.412 33.156 116.812 33.156C116.236 33.156 115.776 33.388 115.432 33.852C115.088 34.316 114.916 34.928 114.916 35.688C114.916 36.448 115.088 37.064 115.432 37.536C115.784 38 116.248 38.232 116.824 38.232ZM126.79 35.784V36.036H121.846C121.902 36.724 122.102 37.264 122.446 37.656C122.798 38.04 123.254 38.232 123.814 38.232C124.238 38.232 124.602 38.132 124.906 37.932C125.218 37.724 125.402 37.456 125.458 37.128H126.658C126.562 37.752 126.246 38.244 125.71 38.604C125.182 38.964 124.55 39.144 123.814 39.144C122.854 39.144 122.086 38.836 121.51 38.22C120.942 37.596 120.658 36.756 120.658 35.7C120.658 34.7 120.942 33.876 121.51 33.228C122.078 32.58 122.846 32.256 123.814 32.256C124.79 32.256 125.53 32.58 126.034 33.228C126.538 33.868 126.79 34.72 126.79 35.784ZM123.814 33.168C123.286 33.168 122.846 33.348 122.494 33.708C122.15 34.06 121.938 34.556 121.858 35.196H125.578C125.546 34.548 125.374 34.048 125.062 33.696C124.75 33.344 124.334 33.168 123.814 33.168ZM132.324 32.892V30.24H133.476V39H132.324V37.488H132.288C132.152 38.016 131.872 38.424 131.448 38.712C131.024 39 130.548 39.144 130.02 39.144C129.212 39.144 128.54 38.824 128.004 38.184C127.476 37.536 127.212 36.704 127.212 35.688C127.212 34.68 127.488 33.856 128.04 33.216C128.592 32.576 129.284 32.256 130.116 32.256C130.628 32.256 131.076 32.396 131.46 32.676C131.852 32.948 132.124 33.36 132.276 33.912H132.324V32.892ZM130.32 38.232C130.904 38.232 131.388 37.996 131.772 37.524C132.156 37.052 132.348 36.44 132.348 35.688C132.348 34.944 132.156 34.336 131.772 33.864C131.396 33.392 130.908 33.156 130.308 33.156C129.732 33.156 129.272 33.388 128.928 33.852C128.584 34.316 128.412 34.928 128.412 35.688C128.412 36.448 128.584 37.064 128.928 37.536C129.28 38 129.744 38.232 130.32 38.232ZM143.761 30.6V31.608H140.917V39H139.717V31.608H136.873V30.6H143.761ZM148.436 38.184C147.852 38.824 147.076 39.144 146.108 39.144C145.14 39.144 144.36 38.824 143.768 38.184C143.184 37.544 142.892 36.708 142.892 35.676C142.892 34.66 143.184 33.836 143.768 33.204C144.36 32.572 145.14 32.256 146.108 32.256C147.076 32.256 147.852 32.572 148.436 33.204C149.028 33.836 149.324 34.66 149.324 35.676C149.324 36.708 149.028 37.544 148.436 38.184ZM144.644 37.524C145.012 37.996 145.5 38.232 146.108 38.232C146.716 38.232 147.204 37.996 147.572 37.524C147.94 37.052 148.124 36.436 148.124 35.676C148.124 34.924 147.94 34.32 147.572 33.864C147.204 33.4 146.716 33.168 146.108 33.168C145.5 33.168 145.012 33.4 144.644 33.864C144.276 34.32 144.092 34.924 144.092 35.676C144.092 36.436 144.276 37.052 144.644 37.524ZM155.237 38.184C154.653 38.824 153.877 39.144 152.909 39.144C151.941 39.144 151.161 38.824 150.569 38.184C149.985 37.544 149.693 36.708 149.693 35.676C149.693 34.66 149.985 33.836 150.569 33.204C151.161 32.572 151.941 32.256 152.909 32.256C153.877 32.256 154.653 32.572 155.237 33.204C155.829 33.836 156.125 34.66 156.125 35.676C156.125 36.708 155.829 37.544 155.237 38.184ZM151.445 37.524C151.813 37.996 152.301 38.232 152.909 38.232C153.517 38.232 154.005 37.996 154.373 37.524C154.741 37.052 154.925 36.436 154.925 35.676C154.925 34.924 154.741 34.32 154.373 33.864C154.005 33.4 153.517 33.168 152.909 33.168C152.301 33.168 151.813 33.4 151.445 33.864C151.077 34.32 150.893 34.924 150.893 35.676C150.893 36.436 151.077 37.052 151.445 37.524ZM156.796 39V30.24H157.948V39H156.796Z" fill="black"/>
<path d="M55.384 9.4H57.166V22H55.402V11.47H55.33C54.814 12.634 53.824 13.216 52.36 13.216V11.524C53.188 11.524 53.872 11.338 54.412 10.966C54.964 10.582 55.288 10.06 55.384 9.4ZM59.1726 17.626V16.186H64.3566V17.626H59.1726ZM72.3906 15.088V15.142C73.3146 15.298 74.0646 15.688 74.6406 16.312C75.2166 16.924 75.5046 17.662 75.5046 18.526C75.5046 19.618 75.0606 20.506 74.1726 21.19C73.2846 21.874 72.1086 22.216 70.6446 22.216C69.1806 22.216 68.0046 21.874 67.1166 21.19C66.2286 20.506 65.7846 19.618 65.7846 18.526C65.7846 17.65 66.0666 16.906 66.6306 16.294C67.2066 15.682 67.9566 15.298 68.8806 15.142V15.088C68.2206 14.956 67.6566 14.644 67.1886 14.152C66.7326 13.66 66.5046 13.066 66.5046 12.37C66.5046 11.482 66.8826 10.732 67.6386 10.12C68.4066 9.496 69.4086 9.184 70.6446 9.184C71.8686 9.184 72.8586 9.496 73.6146 10.12C74.3826 10.732 74.7666 11.482 74.7666 12.37C74.7666 13.066 74.5326 13.66 74.0646 14.152C73.6086 14.644 73.0506 14.956 72.3906 15.088ZM68.9166 11.146C68.4966 11.494 68.2866 11.956 68.2866 12.532C68.2866 13.108 68.4966 13.57 68.9166 13.918C69.3366 14.266 69.9126 14.44 70.6446 14.44C71.3766 14.44 71.9466 14.266 72.3546 13.918C72.7746 13.57 72.9846 13.108 72.9846 12.532C72.9846 11.956 72.7746 11.494 72.3546 11.146C71.9466 10.798 71.3766 10.624 70.6446 10.624C69.9126 10.624 69.3366 10.798 68.9166 11.146ZM68.4126 20.11C68.9646 20.554 69.7086 20.776 70.6446 20.776C71.5806 20.776 72.3186 20.554 72.8586 20.11C73.4106 19.654 73.6866 19.06 73.6866 18.328C73.6866 17.596 73.4106 17.008 72.8586 16.564C72.3186 16.108 71.5806 15.88 70.6446 15.88C69.7086 15.88 68.9646 16.108 68.4126 16.564C67.8726 17.008 67.6026 17.596 67.6026 18.328C67.6026 19.06 67.8726 19.654 68.4126 20.11ZM85.2265 20.47C84.3625 21.634 83.1805 22.216 81.6805 22.216C80.1805 22.216 78.9925 21.634 78.1165 20.47C77.2525 19.306 76.8205 17.716 76.8205 15.7C76.8205 13.684 77.2525 12.094 78.1165 10.93C78.9925 9.766 80.1805 9.184 81.6805 9.184C83.1805 9.184 84.3625 9.766 85.2265 10.93C86.1025 12.094 86.5405 13.684 86.5405 15.7C86.5405 17.716 86.1025 19.306 85.2265 20.47ZM83.8945 11.974C83.3425 11.074 82.6045 10.624 81.6805 10.624C80.7565 10.624 80.0185 11.074 79.4665 11.974C78.9145 12.874 78.6385 14.116 78.6385 15.7C78.6385 17.26 78.9145 18.496 79.4665 19.408C80.0185 20.32 80.7565 20.776 81.6805 20.776C82.6045 20.776 83.3425 20.32 83.8945 19.408C84.4465 18.496 84.7225 17.26 84.7225 15.7C84.7225 14.116 84.4465 12.874 83.8945 11.974ZM96.4687 20.47C95.6047 21.634 94.4227 22.216 92.9227 22.216C91.4227 22.216 90.2347 21.634 89.3587 20.47C88.4947 19.306 88.0627 17.716 88.0627 15.7C88.0627 13.684 88.4947 12.094 89.3587 10.93C90.2347 9.766 91.4227 9.184 92.9227 9.184C94.4227 9.184 95.6047 9.766 96.4687 10.93C97.3447 12.094 97.7827 13.684 97.7827 15.7C97.7827 17.716 97.3447 19.306 96.4687 20.47ZM95.1367 11.974C94.5847 11.074 93.8467 10.624 92.9227 10.624C91.9987 10.624 91.2607 11.074 90.7087 11.974C90.1567 12.874 89.8807 14.116 89.8807 15.7C89.8807 17.26 90.1567 18.496 90.7087 19.408C91.2607 20.32 91.9987 20.776 92.9227 20.776C93.8467 20.776 94.5847 20.32 95.1367 19.408C95.6887 18.496 95.9647 17.26 95.9647 15.7C95.9647 14.116 95.6887 12.874 95.1367 11.974ZM99.4129 17.626V16.186H104.597V17.626H99.4129ZM111.677 9.4C113.441 9.4 114.881 9.982 115.997 11.146C117.113 12.31 117.671 13.81 117.671 15.646C117.671 17.518 117.107 19.048 115.979 20.236C114.863 21.412 113.429 22 111.677 22H106.601V9.4H111.677ZM108.401 20.506H111.389C112.733 20.506 113.807 20.056 114.611 19.156C115.415 18.256 115.817 17.086 115.817 15.646C115.817 14.23 115.415 13.084 114.611 12.208C113.807 11.332 112.739 10.894 111.407 10.894H108.401V20.506ZM123.782 20.488H127.742V22H119.012V20.416L120.956 19.156C122.444 18.184 123.458 17.452 123.998 16.96C125.162 15.88 125.744 14.686 125.744 13.378C125.744 12.526 125.522 11.86 125.078 11.38C124.634 10.9 124.016 10.66 123.224 10.66C122.312 10.66 121.616 10.978 121.136 11.614C120.668 12.238 120.422 13.108 120.398 14.224H118.58C118.58 12.676 118.988 11.452 119.804 10.552C120.632 9.64 121.772 9.184 123.224 9.184C124.544 9.184 125.594 9.556 126.374 10.3C127.166 11.044 127.562 12.07 127.562 13.378C127.562 14.074 127.424 14.734 127.148 15.358C126.884 15.982 126.56 16.522 126.176 16.978C125.792 17.422 125.264 17.884 124.592 18.364C123.92 18.832 123.308 19.216 122.756 19.516C122.216 19.816 121.526 20.17 120.686 20.578L120.722 20.632C121.406 20.536 122.426 20.488 123.782 20.488ZM138.257 17.554H140.111C140.027 18.934 139.487 20.056 138.491 20.92C137.507 21.784 136.271 22.216 134.783 22.216C133.031 22.216 131.603 21.604 130.499 20.38C129.395 19.156 128.843 17.578 128.843 15.646C128.843 13.738 129.395 12.184 130.499 10.984C131.603 9.784 133.031 9.184 134.783 9.184C136.295 9.184 137.537 9.61 138.509 10.462C139.493 11.302 140.027 12.424 140.111 13.828H138.257C138.173 12.88 137.813 12.118 137.177 11.542C136.541 10.966 135.743 10.678 134.783 10.678C133.583 10.678 132.599 11.146 131.831 12.082C131.075 13.006 130.697 14.194 130.697 15.646C130.697 17.122 131.075 18.34 131.831 19.3C132.599 20.248 133.583 20.722 134.783 20.722C135.719 20.722 136.511 20.428 137.159 19.84C137.807 19.24 138.173 18.478 138.257 17.554Z" fill="black"/>
<g clip-path="url(#clip0_3359_2545)">
<rect x="9" y="31" width="30" height="12" rx="6" fill="#F5E433"/>
<path d="M16.9658 38.328H18.7258V39H14.8458V38.296L15.7098 37.736C16.3712 37.304 16.8218 36.9787 17.0618 36.76C17.5792 36.28 17.8378 35.7493 17.8378 35.168C17.8378 34.7893 17.7392 34.4933 17.5418 34.28C17.3445 34.0667 17.0698 33.96 16.7178 33.96C16.3125 33.96 16.0032 34.1013 15.7898 34.384C15.5818 34.6613 15.4725 35.048 15.4618 35.544H14.6538C14.6538 34.856 14.8352 34.312 15.1978 33.912C15.5658 33.5067 16.0725 33.304 16.7178 33.304C17.3045 33.304 17.7712 33.4693 18.1178 33.8C18.4698 34.1307 18.6458 34.5867 18.6458 35.168C18.6458 35.4773 18.5845 35.7707 18.4618 36.048C18.3445 36.3253 18.2005 36.5653 18.0298 36.768C17.8592 36.9653 17.6245 37.1707 17.3258 37.384C17.0272 37.592 16.7552 37.7627 16.5098 37.896C16.2698 38.0293 15.9632 38.1867 15.5898 38.368L15.6058 38.392C15.9098 38.3493 16.3632 38.328 16.9658 38.328ZM23.1832 38.32C22.7992 38.8373 22.2739 39.096 21.6072 39.096C20.9406 39.096 20.4126 38.8373 20.0232 38.32C19.6392 37.8027 19.4472 37.096 19.4472 36.2C19.4472 35.304 19.6392 34.5973 20.0232 34.08C20.4126 33.5627 20.9406 33.304 21.6072 33.304C22.2739 33.304 22.7992 33.5627 23.1832 34.08C23.5726 34.5973 23.7672 35.304 23.7672 36.2C23.7672 37.096 23.5726 37.8027 23.1832 38.32ZM22.5912 34.544C22.3459 34.144 22.0179 33.944 21.6072 33.944C21.1966 33.944 20.8686 34.144 20.6232 34.544C20.3779 34.944 20.2552 35.496 20.2552 36.2C20.2552 36.8933 20.3779 37.4427 20.6232 37.848C20.8686 38.2533 21.1966 38.456 21.6072 38.456C22.0179 38.456 22.3459 38.2533 22.5912 37.848C22.8366 37.4427 22.9592 36.8933 22.9592 36.2C22.9592 35.496 22.8366 34.944 22.5912 34.544ZM26.794 38.328H28.554V39H24.674V38.296L25.538 37.736C26.1993 37.304 26.65 36.9787 26.89 36.76C27.4073 36.28 27.666 35.7493 27.666 35.168C27.666 34.7893 27.5673 34.4933 27.37 34.28C27.1726 34.0667 26.898 33.96 26.546 33.96C26.1406 33.96 25.8313 34.1013 25.618 34.384C25.41 34.6613 25.3006 35.048 25.29 35.544H24.482C24.482 34.856 24.6633 34.312 25.026 33.912C25.394 33.5067 25.9006 33.304 26.546 33.304C27.1326 33.304 27.5993 33.4693 27.946 33.8C28.298 34.1307 28.474 34.5867 28.474 35.168C28.474 35.4773 28.4126 35.7707 28.29 36.048C28.1726 36.3253 28.0286 36.5653 27.858 36.768C27.6873 36.9653 27.4526 37.1707 27.154 37.384C26.8553 37.592 26.5833 37.7627 26.338 37.896C26.098 38.0293 25.7913 38.1867 25.418 38.368L25.434 38.392C25.738 38.3493 26.1913 38.328 26.794 38.328ZM32.6324 37H33.2884V37.64H32.6324V39H31.8484V37.64H28.8084V37.04L31.4884 33.4H32.6324V37ZM30.3844 37H31.8484V34.96C31.8484 34.6507 31.8617 34.3173 31.8884 33.96H31.8564C31.6431 34.3173 31.4431 34.616 31.2564 34.856L30.2324 36.224C29.9924 36.5387 29.7711 36.8 29.5684 37.008L29.5764 37.032C29.8164 37.0107 30.0857 37 30.3844 37Z" fill="black"/>
</g>
<path d="M34.2245 12.1715L34.3888 12.0308C34.5305 11.9108 34.5305 11.7162 34.3888 11.5948L30.5282 8.2973C30.3862 8.17623 30.1579 8.17623 30.0158 8.2973C30.0158 8.2973 29.2148 8.70051 29.0695 7.64123C29.0116 7.21517 28.9023 6.94874 28.7586 6.7966C28.7408 6.7791 27.9447 6.09053 27.9447 6.09053C27.8026 5.96982 27.5739 5.96982 27.4322 6.09053L24.5427 8.55908C24.401 8.67908 24.401 8.87515 24.5427 8.99586C24.5427 8.99586 25.3485 9.67622 25.3696 9.6905C25.5473 9.81371 25.8589 9.90693 26.3584 9.95621C27.5986 10.0805 27.1258 10.7641 27.1258 10.7641C26.9838 10.8851 26.9846 11.0816 27.1258 11.2016L27.9633 11.9169L25.795 13.7687L25.474 13.4944C25.474 13.4944 24.3338 14.1183 23.0811 15.189C21.6972 16.3704 20.9217 17.9315 19.0958 19.4904C16.3504 21.835 15.0147 22.3665 13.9076 23.0739C13.4899 23.34 13.5292 23.3822 13.9117 23.7089L15.1017 24.7261L16.2917 25.7425C16.6742 26.0682 16.724 26.1018 17.0364 25.7461C17.8642 24.8011 18.5365 23.7029 21.2819 21.3572C23.1074 19.799 24.9365 19.1361 26.3187 17.9547C27.5719 16.8844 28.3029 15.9108 28.3029 15.9108L27.9819 15.6362L30.149 13.7844L30.9864 14.5001C31.1281 14.6201 31.3572 14.6201 31.498 14.4994L31.6247 14.3912C32.3654 14.9251 34.7535 16.8601 33.9982 19.1193C33.895 19.4283 33.7169 19.7036 33.808 19.7818C33.9322 19.8872 34.4074 19.4826 34.6843 19.2443C38.2016 16.2179 34.9235 12.8262 34.2245 12.1715Z" fill="black"/>
<path d="M27.694 17.5879C27.4001 17.875 27.0698 18.1811 26.7031 18.4947C26.1846 18.9375 25.616 19.3232 25.0137 19.6979L30.7471 24.7493C31.0972 25.056 31.6679 25.0553 32.016 24.7493L33.2849 23.6314C33.635 23.3235 33.6342 22.8203 33.2849 22.5136L27.694 17.5879Z" fill="black"/>
<path d="M16.2826 15.0645L18.017 13.5366L21.2085 16.3484C21.6311 15.8562 22.0678 15.3905 22.5665 14.9648C22.9575 14.6302 23.34 14.3309 23.6945 14.0677L20.554 11.3013L22.2876 9.77415C22.6417 9.4638 22.6426 8.95381 22.2876 8.64274L19.5547 6.2349C19.2013 5.92312 18.6233 5.92312 18.2687 6.23419L16.536 7.76132L15.8661 7.17132C15.518 6.86418 14.9469 6.86418 14.5976 7.17061L13.3291 8.28917C12.9802 8.59631 12.9806 9.09916 13.3291 9.4063L13.9989 9.9963L12.2646 11.5241C11.9116 11.8352 11.912 12.3445 12.2646 12.6563L14.9995 15.0645C15.3521 15.3755 15.9292 15.3752 16.2826 15.0645Z" fill="black"/>
<defs>
<clipPath id="clip0_3359_2545">
<rect width="30" height="12" fill="white" transform="translate(9 31)"/>
</clipPath>
</defs>
</svg>
