        <svg
                        width='19'
                        height='20'
                        viewBox='0 0 19 20'
                        fill='none'
                        xmlns='http://www.w3.org/2000/svg'
                      >
                        <path
                          d='M3.94506 6.04813C4.90171 6.04813 5.67722 5.27262 5.67722 4.31597C5.67722 3.35932 4.90171 2.5838 3.94506 2.5838C2.98841 2.5838 2.21289 3.35932 2.21289 4.31597C2.21289 5.27262 2.98841 6.04813 3.94506 6.04813Z'
                          fill='black'
                        />
                        <path
                          d='M7.31261 7.36039V16.9704H10.2964V12.2181C10.2964 10.9641 10.5323 9.74964 12.0872 9.74964C13.6206 9.74964 13.6396 11.1834 13.6396 12.2972V16.9712H16.625V11.7011C16.625 9.11235 16.0677 7.12289 13.0419 7.12289C11.5892 7.12289 10.6154 7.9201 10.2172 8.67456H10.1769V7.36039H7.31261ZM2.4502 7.36039H5.43874V16.9704H2.4502V7.36039Z'
                          fill='black'
                        />
                      </svg>