<svg width="40" height="40" viewBox="0 0 40 40" fill="none" xmlns="http://www.w3.org/2000/svg">
<rect width="40" height="40" rx="5" fill="#F8F8F9"/>
<path d="M12.5 27.5V25.8333L14.1667 24.1667V27.5H12.5ZM15.8333 27.5V22.5L17.5 20.8333V27.5H15.8333ZM19.1667 27.5V20.8333L20.8333 22.5208V27.5H19.1667ZM22.5 27.5V22.5208L24.1667 20.8542V27.5H22.5ZM25.8333 27.5V19.1667L27.5 17.5V27.5H25.8333ZM12.5 23.1875V20.8333L18.3333 15L21.6667 18.3333L27.5 12.5V14.8542L21.6667 20.6875L18.3333 17.3542L12.5 23.1875Z" fill="#333333"/>
</svg>
