<svg width="40" height="40" viewBox="0 0 40 40" fill="none" xmlns="http://www.w3.org/2000/svg">
<rect width="40" height="40" rx="5" fill="#F8F8F9"/>
<path d="M19.1257 22.9582L23.834 18.2498L22.6465 17.0623L19.1257 20.5832L17.3757 18.8332L16.1882 20.0207L19.1257 22.9582ZM20.0007 28.3332C18.0701 27.8471 16.4763 26.7394 15.2194 25.0103C13.9625 23.2811 13.334 21.3609 13.334 19.2498V14.1665L20.0007 11.6665L26.6673 14.1665V19.2498C26.6673 21.3609 26.0388 23.2811 24.7819 25.0103C23.525 26.7394 21.9312 27.8471 20.0007 28.3332ZM20.0007 26.5832C21.4451 26.1248 22.6395 25.2082 23.584 23.8332C24.5284 22.4582 25.0007 20.9304 25.0007 19.2498V15.3123L20.0007 13.4373L15.0007 15.3123V19.2498C15.0007 20.9304 15.4729 22.4582 16.4173 23.8332C17.3618 25.2082 18.5562 26.1248 20.0007 26.5832Z" fill="#333333"/>
</svg>
